{
  "journalentry": {
    "origin": "Journal Entry",
    "description": "Inserting Journal Entry rows to trigger incremental index",
    "action": [
      {
        "type": "insert"
      }
    ],
    "active": true
  },
  "OS_PROPERTYENTRY": {
    "origin": "User Info",
    "description": "Delete User Info",
    "action": [
      {
        "type": "delete"
      }
    ],
    "where": {
      "entity_name": {
        "type": "function",
        "function_name": "concat",
        "parameters": [
          {
            "type": "text",
            "value": "'USERPROPS-'"
          },
          {
            "type": "nested",
            "column_select": "user_key",
            "table": "user_mapping",
            "value": {
              "username": {
                "type": "user_key"
              }
            }
          }
        ]
      }
    },
    "active": true
  },
  "BODYCONTENT": {
    "origin": "User Profile Info",
    "description": "Deleting User Profile Info",
    "action": [
      {
        "type": "delete"
      }
    ],
    "where": {
      "BODYCONTENT.CONTENTID": {
        "type": "nested",
        "column_select": "CONTENTID",
        "table": "CONTENT",
        "value": {
          "CONTENT.CONTENTTYPE": {
            "type": "exact_value",
            "value": "'USERINFO'"
          },
          "CONTENT.USERNAME": {
            "type": "nested",
            "column_select": "user_key",
            "table": "user_mapping",
            "value": {
              "username": {
                "type": "user_key"
              }
            }
          }
        }
      }
    },
    "active": true
  },
  "CONTENTPROPERTIES": {
    "origin": "User Profile Info",
    "description": "Deleting User Profile Info",
    "action": [
      {
        "type": "delete"
      }
    ],
    "where": {
      "CONTENTID": {
        "type": "nested",
        "column_select": "CONTENTID",
        "table": "CONTENT",
        "value": {
          "PAGEID": {
            "type": "nested",
            "column_select": "CONTENTID",
            "table": "CONTENT",
            "value": {
              "CONTENTTYPE": {
                "type": "exact_value",
                "value": "'USERINFO'"
              },
              "CONTENT.USERNAME": {
                "type": "nested",
                "column_select": "user_key",
                "table": "user_mapping",
                "value": {
                  "username": {
                    "type": "user_key"
                  }
                }
              }
            }
          }
        }
      }
    },
    "active": true
  },
  "IMAGEDETAILS": {
    "origin": "User Profile Info",
    "description": "Deleting User Profile Info",
    "action": [
      {
        "type": "delete"
      }
    ],
    "where": {
      "ATTACHMENTID": {
        "type": "nested",
        "column_select": "CONTENTID",
        "table": "CONTENT",
        "value": {
          "PAGEID": {
            "type": "nested",
            "column_select": "CONTENTID",
            "table": "CONTENT",
            "value": {
              "CONTENTTYPE": {
                "type": "exact_value",
                "value": "'USERINFO'"
              },
              "CONTENT.USERNAME": {
                "type": "nested",
                "column_select": "user_key",
                "table": "user_mapping",
                "value": {
                  "username": {
                    "type": "user_key"
                  }
                }
              }
            }
          }
        }
      }
    },
    "active": true
  },
  "CONTENT": {
    "origin": "User Profile Info",
    "description": "Deleting User Profile Info",
    "action": [
      {
        "type": "delete"
      }
    ],
    "where": {
      "PAGEID": {
        "type": "nested",
        "db_specific": "mysql",
        "wrap": "(SELECT * FROM ($1) AS reference) ORDER BY VERSION ASC",
        "column_select": "CONTENTID",
        "table": "CONTENT",
        "value": {
          "CONTENTTYPE": {
            "type": "exact_value",
            "value": "'USERINFO'"
          },
          "CONTENT.USERNAME": {
            "type": "nested",
            "column_select": "user_key",
            "table": "user_mapping",
            "value": {
              "username": {
                "type": "user_key"
              }
            }
          }
        }
      }
    },
    "active": true
  },
  "NOTIFICATIONS": {
    "origin": "User Profile Info",
    "description": "Deleting User Profile Info",
    "action": [
      {
        "type": "delete"
      }
    ],
    "where": {
      "CONTENTID": {
        "type": "nested",
        "column_select": "CONTENTID",
        "table": "CONTENT",
        "value": {
          "CONTENTTYPE": {
            "type": "exact_value",
            "value": "'USERINFO'"
          },
          "CONTENT.USERNAME": {
            "type": "nested",
            "column_select": "user_key",
            "table": "user_mapping",
            "value": {
              "username": {
                "type": "user_key"
              }
            }
          }
        }
      }
    },
    "active": true
  },
  " CONTENT ": {
    "origin": "User Profile Info History",
    "description": "Deleting User Profile Info History",
    "action": [
      {
        "type": "delete"
      }
    ],
    "where": {
      "PREVVER": {
        "type": "nested",
        "db_specific": "mysql",
        "wrap": "(SELECT * FROM ($1) AS reference) ORDER BY VERSION ASC",
        "column_select": "CONTENTID",
        "table": "CONTENT",
        "value": {
          "CONTENTTYPE": {
            "type": "exact_value",
            "value": "'USERINFO'"
          },
          "CONTENT.USERNAME": {
            "type": "nested",
            "column_select": "user_key",
            "table": "user_mapping",
            "value": {
              "username": {
                "type": "user_key"
              }
            }
          }
        }
      }
    },
    "active": true
  },
  "CONTENT ": {
    "origin": "User Profile Info",
    "description": "Deleting User Profile Info",
    "action": [
      {
        "type": "delete"
      }
    ],
    "where": {
      "CONTENTTYPE": {
        "type": "exact_value",
        "value": "'USERINFO'"
      },
      "USERNAME": {
        "type": "nested",
        "column_select": "user_key",
        "table": "user_mapping",
        "value": {
          "username": {
            "type": "user_key"
          }
        }
      }
    },
    "active": true
  },
  "LIKES": {
    "origin": "Likes",
    "description": "Delete all likes by the user",
    "action": [
      {
        "type": "delete"
      }
    ],
    "where": {
      "USERNAME": {
        "type": "nested",
        "column_select": "user_key",
        "table": "user_mapping",
        "value": {
          "username": {
            "type": "user_key"
          }
        }
      }
    },
    "active": true
  },
  " CONTENT": {
    "origin": "User Personal Information",
    "description": "Deleting User Personal Information",
    "action": [
      {
        "type": "delete"
      }
    ],
    "where": {
      "CONTENTTYPE": {
        "type": "exact_value",
        "value": "'USERINFO'"
      },
      "USERNAME": {
        "type": "nested",
        "column_select": "user_key",
        "table": "user_mapping",
        "value": {
          "username": {
            "type": "user_key"
          }
        }
      }
    },
    "active": true
  },
  "cwd_membership": {
    "origin": "User Membership",
    "description": "Deleting User Membership",
    "action": [
      {
        "type": "delete"
      }
    ],
    "where": {
      "child_user_id": {
        "type": "nested",
        "column_select": "id",
        "table": "cwd_user",
        "value": {
          "user_name": {
            "type": "user_key"
          }
        }
      }
    },
    "active": true
  },
  "cwd_user_attribute": {
    "origin": "User Attributes",
    "description": "Deleting User Attributes",
    "action": [
      {
        "type": "delete"
      }
    ],
    "where": {
      "user_id": {
        "type": "nested",
        "column_select": "id",
        "table": "cwd_user",
        "value": {
          "user_name": {
            "type": "user_key"
          }
        }
      }
    },
    "active": true
  },
  "cwd_user": {
    "origin": "User",
    "description": "Deleting User",
    "action": [
      {
        "type": "delete"
      }
    ],
    "where": {
      "user_name": {
        "type": "user_key"
      }
    },
    "active": true
  },
  "user_mapping": {
    "origin": "User Mapping",
    "description": "Update User Mapping",
    "action": [
      {
        "type": "update",
        "where": "username = user_mapping.user_key, lower_username = user_mapping.user_key"
      }
    ],
    "where": {
      "user_key": {
        "type": "nested",
        "db_specific": "mysql",
        "wrap": "(SELECT * FROM ($1) AS reference)",
        "column_select": "user_key",
        "table": "user_mapping",
        "value": {
          "username": {
            "type": "user_key"
          }
        }
      }
    },
    "active": true
  }
}